com/lucifer/dao/impl/UserDaoImpl.class
com/lucifer/service/impl/UserServiceImpl.class
com/lucifer/service/UserService.class
com/lucifer/WebApp.class
com/lucifer/dao/UserDao.class
com/lucifer/config/RedisConfig.class
com/lucifer/domain/UserAccount.class
